{
  "title": "authorForEnquiry",
  "type": "object",
  "properties": {
    "name": {
      "type": "string"
    },
    "id": {
      "type": "string"
    },
    "identifier": {
      "$ref": "./identifier.v1.json"
    },
    "address": {
      "$ref": "./address.v1.json"
    },
    "additionalIdentifiers": {
      "type": "array",
      "items": {
        "$ref": "./identifier.v1.json"
      }
    },
    "contactPoint": {
      "$ref": "./contact_point.v1.json"
    },
    "details": {
      "type": "object",
      "required": [
        "scale"
      ],
      "properties": {
        "scale": {
          "type": "string",
          "example": "miscro"
        }
      }
    }
  },
  "required": [
    "name",
    "id",
    "identifier",
    "address",
    "contactPoint",
    "details"
  ]
}