{
  "openapi": "3.0.0",
  "info": {
    "title": "Create Submission",
    "version": "1.0"
  },
  "servers": [
    {
      "url": "http://{host}:9251"
    }
  ],
  "paths": {
    "/command": {
      "post": {
        "summary": "Create Submission",
        "operationId": "post-command",
        "responses": {
          "200": {
            "description": "OK",
            "content": {
              "application/json": {
                "schema": {
                  "allOf": [
                    {
                      "$ref": "../models/response_command.v1.json"
                    },
                    {
                      "type": "object",
                      "properties": {
                        "result": {
                          "type": "object",
                          "required": [
                            "id",
                            "date",
                            "candidates",
                            "status",
                            "token"
                          ],
                          "properties": {
                            "id": {
                              "type": "string",
                              "format": "uuid"
                            },
                            "date": {
                              "type": "string",
                              "format": "date-time"
                            },
                            "requirementResponses": {
                              "type": "array",
                              "items": {
                                "$ref": "../models/requirementResponseShortRelatedCandidate.v1.json"
                              }
                            },
                            "candidates": {
                              "type": "array",
                              "items": {
                                "$ref": "../models/organizationReference.v1.json"
                              }
                            },
                            "documents": {
                              "type": "array",
                              "items": {
                                "$ref": "../models/documents_object.v1.json"
                              }
                            },
                            "status": {
                              "type": "string",
                              "enum": [
                                "pending"
                              ]
                            },
                            "token": {
                              "type": "string",
                              "format": "uuid"
                            }
                          }
                        }
                      },
                      "required": [
                        "result"
                      ]
                    },
                    {
                      "type": "object",
                      "properties": {
                        "result": {
                          "type": "object",
                          "properties": {
                            "documents": {
                              "type": "array",
                              "items": {
                                "type": "object",
                                "properties": {
                                  "documentType": {
                                    "type": "string",
                                    "enum": [
                                      "illustration",
                                      "submissionDocuments",
                                      "x_qualificationDocuments",
                                      "x_eligibilityDocuments",
                                      "x_technicalDocuments"
                                    ]
                                  }
                                }
                              }
                            }
                          }
                        }
                      }
                    }
                  ]
                }
              }
            }
          }
        },
        "requestBody": {
          "content": {
            "application/json": {
              "schema": {
                "allOf": [
                  {
                    "$ref": "../models/request_command.v1.json"
                  },
                  {
                    "type": "object",
                    "properties": {
                      "action": {
                        "type": "string",
                        "enum": [
                          "createSubmission"
                        ]
                      }
                    },
                    "required": [
                      "action"
                    ]
                  },
                  {
                    "type": "object",
                    "properties": {
                      "params": {
                        "type": "object",
                        "required": [
                          "cpid",
                          "ocid",
                          "date",
                          "owner",
                          "submission"
                        ],
                        "properties": {
                          "cpid": {
                            "$ref": "../models/cpid.v1.json"
                          },
                          "ocid": {
                            "$ref": "../models/ocid.v1.json"
                          },
                          "date": {
                            "type": "string",
                            "format": "date-time",
                            "description": "дата запроса"
                          },
                          "owner": {
                            "type": "string",
                            "format": "uuid"
                          },
                          "submission": {
                            "type": "object",
                            "required": [
                              "candidates",
                              "id"
                            ],
                            "properties": {
                              "candidates": {
                                "type": "array",
                                "items": {
                                  "$ref": "../models/organizationSupplierFull.v1.json"
                                }
                              },
                              "requirementResponses": {
                                "type": "array",
                                "items": {
                                  "$ref": "../models/requirementResponseShortRelatedCandidate.v1.json"
                                }
                              },
                              "documents": {
                                "type": "array",
                                "items": {
                                  "$ref": "../models/documents_object.v1.json"
                                }
                              },
                              "id": {
                                "type": "string",
                                "format": "uuid"
                              }
                            }
                          }
                        }
                      }
                    },
                    "required": [
                      "params"
                    ]
                  },
                  {
                    "type": "object",
                    "properties": {
                      "params": {
                        "type": "object",
                        "properties": {
                          "submission": {
                            "type": "object",
                            "properties": {
                              "documents": {
                                "type": "array",
                                "items": {
                                  "type": "object",
                                  "properties": {
                                    "documentType": {
                                      "type": "string",
                                      "enum": [
                                        "illustration",
                                        "submissionDocuments",
                                        "x_qualificationDocuments",
                                        "x_eligibilityDocuments",
                                        "x_technicalDocuments"
                                      ]
                                    }
                                  }
                                }
                              }
                            }
                          }
                        }
                      }
                    }
                  }
                ]
              }
            }
          }
        }
      }
    }
  }
}